<svg width="49" height="48" viewBox="0 0 49 48" fill="none" xmlns="http://www.w3.org/2000/svg" xmlns:xlink="http://www.w3.org/1999/xlink">
<path d="M0.625 24C0.625 10.7452 11.3702 0 24.625 0V0C37.8798 0 48.625 10.7452 48.625 24V24C48.625 37.2548 37.8798 48 24.625 48V48C11.3702 48 0.625 37.2548 0.625 24V24Z" fill="url(#pattern0)"/>
<path d="M24.625 47C11.9225 47 1.625 36.7025 1.625 24H-0.375C-0.375 37.8071 10.8179 49 24.625 49V47ZM47.625 24C47.625 36.7025 37.3275 47 24.625 47V49C38.4321 49 49.625 37.8071 49.625 24H47.625ZM24.625 1C37.3275 1 47.625 11.2975 47.625 24H49.625C49.625 10.1929 38.4321 -1 24.625 -1V1ZM24.625 -1C10.8179 -1 -0.375 10.1929 -0.375 24H1.625C1.625 11.2975 11.9225 1 24.625 1V-1Z" fill="#E5E6E7"/>
<defs>
<pattern id="pattern0" patternContentUnits="objectBoundingBox" width="1" height="1">
<use xlink:href="#image0_1727_70385" transform="scale(0.00444444)"/>
</pattern>

</defs>
</svg>
