<svg width="56" height="56" viewBox="0 0 56 56" fill="none" xmlns="http://www.w3.org/2000/svg">
<path d="M17.5399 38.9203C16.1006 37.481 14.9588 35.7723 14.1799 33.8917C13.4009 32.0112 13 29.9956 13 27.9601C13 25.9246 13.4009 23.9091 14.1799 22.0285C14.9588 20.148 16.1006 18.4393 17.5399 17M39.4601 17C40.8994 18.4393 42.0412 20.148 42.8201 22.0285C43.5991 23.9091 44 25.9246 44 27.9601C44 29.9956 43.5991 32.0112 42.8201 33.8917C42.0412 35.7723 40.8994 37.481 39.4601 38.9203M22.4103 34.0481C20.796 32.4333 19.8891 30.2435 19.8891 27.9601C19.8891 25.6768 20.796 23.4869 22.4103 21.8721M34.5897 21.8721C36.204 23.4869 37.1109 25.6768 37.1109 27.9601C37.1109 30.2435 36.204 32.4333 34.5897 34.0481M30.2222 27.9601C30.2222 28.4169 30.0408 28.8549 29.7178 29.1779C29.3948 29.5009 28.9568 29.6823 28.5 29.6823C28.0432 29.6823 27.6052 29.5009 27.2822 29.1779C26.9592 28.8549 26.7778 28.4169 26.7778 27.9601C26.7778 27.5034 26.9592 27.0653 27.2822 26.7423C27.6052 26.4194 28.0432 26.2379 28.5 26.2379C28.9568 26.2379 29.3948 26.4194 29.7178 26.7423C30.0408 27.0653 30.2222 27.5034 30.2222 27.9601Z" stroke="#229AD6" stroke-width="2" stroke-linecap="round" stroke-linejoin="round"/>
</svg>
