<svg width="56" height="56" viewBox="0 0 56 56" fill="none" xmlns="http://www.w3.org/2000/svg">
<path d="M19.0281 30.8574H17.8852C16.628 30.8574 15.5996 31.886 15.5996 33.143V34.286C15.5996 35.5432 16.6282 36.5716 17.8852 36.5716H19.0281C20.2854 36.5716 21.3138 35.5429 21.3138 34.286V33.143C21.314 31.886 20.2854 30.8574 19.0281 30.8574ZM20.1711 34.286C20.1711 34.9145 19.6569 35.4289 19.0281 35.4289H17.8852C17.2567 35.4289 16.7423 34.9147 16.7423 34.286V33.143C16.7423 32.5145 17.2565 32.0001 17.8852 32.0001H19.0281C19.6567 32.0001 20.1711 32.5143 20.1711 33.143V34.286Z" fill="#229AD6"/>
<path d="M23.6016 32.1152H36.4586V33.2582H23.6016V32.1152Z" fill="#229AD6"/>
<path d="M23.6016 34.4023H33.6013V35.5453H23.6016V34.4023Z" fill="#229AD6"/>
<path d="M41.1428 16H18.8573C17.2574 16 16.0001 17.2572 16.0001 18.8572V20.0001L14.8572 19.9999C13.2572 19.9999 12 21.2571 12 22.8571V36.5712C12 38.1712 13.2572 39.4284 14.8572 39.4284H37.1427C38.7426 39.4284 39.9999 38.1712 39.9999 36.5712V35.4283H41.1428C42.7428 35.4283 44 34.1711 44 32.5711V18.857C43.9998 17.257 42.7428 16 41.1428 16V16ZM14.857 21.1428H37.1424C38.1139 21.1428 38.8567 21.8856 38.8567 22.8571V24.5713H13.1427V22.8571C13.1427 21.8856 13.8855 21.1428 14.857 21.1428ZM37.1424 38.2855H14.857C13.8855 38.2855 13.1427 37.5427 13.1427 36.5712V27.9999H38.8567V36.5712C38.8567 37.5427 38.1139 38.2855 37.1424 38.2855ZM42.8568 32.5711C42.8568 33.5425 42.114 34.2854 41.1426 34.2854H39.9996V22.8567C39.9996 21.2567 38.7424 19.9995 37.1424 19.9995L17.143 19.9997V18.8568C17.143 17.8854 17.8859 17.1426 18.8573 17.1426H41.1428C42.1142 17.1426 42.8571 17.8854 42.8571 18.8568L42.8568 32.5711Z" fill="#229AD6"/>
</svg>
