<svg xmlns="http://www.w3.org/2000/svg" viewBox="0 0 32 32">
  <g id="a3fc3eda-458d-41fa-9d06-1591a34297e7" data-name="Layer 2">
    <path d="M29.62,7.08,25,2.4a3.06,3.06,0,0,0-4.23,0L16,7.08a3,3,0,0,0-.32.39V3.94H4.49a3,3,0,0,0-3,3V27.45a3,3,0,0,0,3,3H25a3,3,0,0,0,3-3V16.22H24.66c.09-.08.2-.15.29-.24l4.67-4.67h0A3,3,0,0,0,29.62,7.08ZM3.44,6.93a1,1,0,0,1,1.05-1h9.3V16.22H3.44ZM13.79,28.5H4.49a1,1,0,0,1-1.05-1.05V18.16H13.79Zm12.28-1.05A1,1,0,0,1,25,28.5h-9.3V18.16H26.07ZM15.72,16.22v-5.3c.1.13.2.26.32.39L20.72,16a3.36,3.36,0,0,0,.29.24ZM28.25,9.94l-4.67,4.67a1.08,1.08,0,0,1-1.49,0L17.41,9.94a1.06,1.06,0,0,1,0-1.49l4.68-4.68a1.06,1.06,0,0,1,.74-.3,1.08,1.08,0,0,1,.75.3l4.67,4.68A1.06,1.06,0,0,1,28.25,9.94Z" fill="#229ad6"/>
  </g>
</svg>
