<svg width="28" height="34" viewBox="0 0 28 34" fill="none" xmlns="http://www.w3.org/2000/svg">
<path d="M13.0948 0.0371094L0.419922 12.4452V28.3984C0.419922 29.8087 0.992231 31.1613 2.01095 32.1586C3.02966 33.1559 4.41134 33.7161 5.85202 33.7161H22.1483C23.589 33.7161 24.9707 33.1559 25.9894 32.1586C27.0081 31.1613 27.5804 29.8087 27.5804 28.3984V5.35485C27.5804 3.9445 27.0081 2.59191 25.9894 1.59464C24.9707 0.59737 23.589 0.0371094 22.1483 0.0371094H13.0948ZM13.8444 1.80969H22.1483C23.1088 1.80969 24.0299 2.1832 24.709 2.84804C25.3882 3.51289 25.7697 4.41461 25.7697 5.35485V28.3984C25.7697 29.3386 25.3882 30.2403 24.709 30.9052C24.0299 31.57 23.1088 31.9435 22.1483 31.9435H5.85202C4.89157 31.9435 3.97045 31.57 3.2913 30.9052C2.61216 30.2403 2.23062 29.3386 2.23062 28.3984V13.179L13.8444 1.80969Z" fill="#191A1B"/>
<path d="M12.3711 26.1118V16.334H14.5439V26.1118H12.3711Z" fill="#191A1B"/>
</svg>
