<svg width="33" height="32" viewBox="0 0 33 32" fill="none" xmlns="http://www.w3.org/2000/svg">
<path d="M26.917 5.33398H5.58366C4.10366 5.33398 2.93033 6.52065 2.93033 8.00065L2.91699 24.0007C2.91699 25.4806 4.10366 26.6673 5.58366 26.6673H10.917C11.6503 26.6673 12.2503 26.438 12.2503 25.7047C12.2503 24.9714 11.6503 24.6053 10.917 24.6053H4.93537V16.0007H29.5837V8.00065C29.5837 6.53398 28.3837 5.33398 26.917 5.33398ZM27.5653 16.0007H4.93537V7.35237H27.5653V16.0007Z" fill="#303236"/>
<path d="M17.3299 22.733L20.1566 25.5597L26.7699 18.9597C27.0192 18.7104 27.3573 18.5703 27.7099 18.5703C28.0625 18.5703 28.4006 18.7104 28.6499 18.9597C28.8992 19.209 29.0393 19.5471 29.0393 19.8997C29.0393 20.2522 28.8992 20.5904 28.6499 20.8397L21.1032 28.3863C20.5832 28.9063 19.7432 28.9063 19.2232 28.3863L15.4499 24.613C15.3265 24.4896 15.2285 24.343 15.1617 24.1817C15.0949 24.0204 15.0605 23.8476 15.0605 23.673C15.0605 23.4984 15.0949 23.3256 15.1617 23.1643C15.2285 23.003 15.3265 22.8564 15.4499 22.733C15.5733 22.6096 15.7199 22.5116 15.8812 22.4448C16.0425 22.378 16.2153 22.3436 16.3899 22.3436C16.5645 22.3436 16.7373 22.378 16.8986 22.4448C17.0599 22.5116 17.2065 22.6096 17.3299 22.733Z" fill="#191A1B"/>
<rect x="4.96094" y="11.2617" width="22.5958" height="4.73783" fill="#FF9D66"/>
</svg>
