<svg width="33" height="32" viewBox="0 0 33 32" fill="none" xmlns="http://www.w3.org/2000/svg">
<path d="M8.03627 3.26581V3.25761L8.03601 3.24942C8.02232 2.83202 8.17445 2.42617 8.45914 2.12061C8.74181 1.8172 9.13235 1.63717 9.54641 1.61914H23.9528C24.3669 1.63717 24.7574 1.8172 25.0401 2.12061C25.3248 2.42617 25.4769 2.83201 25.4632 3.24942L25.4629 3.25761V3.26581V29.1058V29.114L25.4632 29.1222C25.4769 29.5396 25.3248 29.9454 25.0401 30.251C24.7574 30.5544 24.3669 30.7344 23.9528 30.7525H9.54639C9.13234 30.7344 8.74181 30.5544 8.45914 30.251L8.09331 30.5918L8.45914 30.251C8.17445 29.9454 8.02232 29.5396 8.03601 29.1222L8.03627 29.114V29.1058V3.26581Z" fill="#303236" stroke="#F7F7F8"/>
<path d="M22.9153 5H10.5847C10.1237 5 9.75 5.38399 9.75 5.85767V25.1423C9.75 25.616 10.1237 26 10.5847 26H22.9153C23.3763 26 23.75 25.616 23.75 25.1423V5.85767C23.75 5.38399 23.3763 5 22.9153 5Z" fill="#66DAFF"/>
<path d="M18.0036 27H15.4836C14.8503 27 14.3369 27.5134 14.3369 28.1467V28.16C14.3369 28.7933 14.8503 29.3067 15.4836 29.3067H18.0036C18.6369 29.3067 19.1502 28.7933 19.1502 28.16V28.1467C19.1502 27.5134 18.6369 27 18.0036 27Z" fill="#E5E6E7"/>
</svg>
