<svg width="33" height="32" viewBox="0 0 33 32" fill="none" xmlns="http://www.w3.org/2000/svg">
<g clip-path="url(#clip0_3857_10444)">
<path d="M27.0821 9.34288H6.88341C6.64216 9.38955 6.39357 9.38232 6.15545 9.32169C5.91733 9.26107 5.69556 9.14856 5.50603 8.99221C5.3165 8.83587 5.16391 8.63957 5.05917 8.41736C4.95443 8.19516 4.90015 7.95255 4.9002 7.70691V7.67526L26.2489 6.84395V4.86146C26.2837 4.56567 26.2508 4.26584 26.1527 3.98462C26.0546 3.70339 25.8939 3.44813 25.6826 3.23809C25.4714 3.02806 25.2152 2.86875 24.9333 2.77219C24.6515 2.67564 24.3514 2.64436 24.0557 2.68072L5.10019 5.76108C4.46045 5.99715 3.90833 6.42333 3.51805 6.98234C3.12776 7.54135 2.91801 8.20639 2.91699 8.88808L2.91699 26.8337C2.91699 27.4965 3.18037 28.1321 3.64918 28.6008C4.11799 29.0694 4.75384 29.3327 5.41684 29.3327H27.0821C27.7451 29.3327 28.381 29.0694 28.8498 28.6008C29.3186 28.1321 29.582 27.4965 29.582 26.8337V11.8235L29.5837 11.7552C29.5837 11.1145 29.3291 10.5001 28.8759 10.0471C28.4227 9.59405 27.808 9.33955 27.1671 9.33955L27.0788 9.34122L27.0821 9.34288ZM24.5823 21.0046C23.9191 21.0043 23.2831 20.7408 22.8143 20.2718C22.3455 19.8029 22.0822 19.167 22.0825 18.504C22.0827 17.841 22.3464 17.2053 22.8155 16.7366C23.2846 16.268 23.9208 16.0048 24.584 16.005C24.9124 16.0051 25.2375 16.0699 25.5409 16.1956C25.8442 16.3214 26.1198 16.5056 26.352 16.7378C26.5841 16.97 26.7682 17.2456 26.8938 17.549C27.0194 17.8523 27.0839 18.1774 27.0838 18.5056C27.0837 18.8339 27.0189 19.159 26.8931 19.4622C26.7674 19.7654 26.5831 20.0409 26.3508 20.273C26.1185 20.505 25.8428 20.6891 25.5393 20.8146C25.2359 20.9401 24.9107 21.0047 24.5823 21.0046Z" fill="#2348AD"/>
<circle cx="7.97884" cy="23.3333" r="7.33333" fill="#2348AD"/>
<path d="M8.25 17.6C4.71538 17.6 1.85 20.4654 1.85 24C1.85 27.5346 4.71538 30.4 8.25 30.4C11.7846 30.4 14.65 27.5346 14.65 24C14.65 20.4654 11.7846 17.6 8.25 17.6ZM0.25 24C0.25 19.5817 3.83172 16 8.25 16C12.6683 16 16.25 19.5817 16.25 24C16.25 28.4183 12.6683 32 8.25 32C3.83172 32 0.25 28.4183 0.25 24ZM8.25 20C8.69183 20 9.05 20.3582 9.05 20.8V23.2H11.45C11.8918 23.2 12.25 23.5582 12.25 24C12.25 24.4418 11.8918 24.8 11.45 24.8H9.05V27.2C9.05 27.6418 8.69183 28 8.25 28C7.80817 28 7.45 27.6418 7.45 27.2V24.8H5.05C4.60817 24.8 4.25 24.4418 4.25 24C4.25 23.5582 4.60817 23.2 5.05 23.2H7.45V20.8C7.45 20.3582 7.80817 20 8.25 20Z" fill="#F7F7F8"/>
</g>
<defs>
<clipPath id="clip0_3857_10444">
<rect width="32" height="32" fill="white" transform="translate(0.25)"/>
</clipPath>
</defs>
</svg>
