<svg width="33" height="32" viewBox="0 0 33 32" fill="none" xmlns="http://www.w3.org/2000/svg">
<path d="M23.7283 17.2835L23.7286 17.2832C24.8506 15.9145 25.5569 14.2529 25.764 12.4952C25.9679 10.7418 25.6626 8.96678 24.8845 7.38231C24.0976 5.78352 22.8742 4.44011 21.3559 3.50745L21.3556 3.50726C19.8209 2.56334 18.0544 2.064 16.2527 2.06484L16.2524 2.06484C14.4463 2.06484 12.6773 2.56487 11.1495 3.50565L11.1488 3.50608C9.62987 4.43848 8.40594 5.78182 7.61856 7.38072C6.8401 8.96454 6.53414 10.739 6.73724 12.4921L23.7283 17.2835ZM23.7283 17.2835C23.3383 17.7598 22.6962 18.8102 22.1145 19.912C21.6298 20.83 21.1519 21.8495 20.8862 22.6686H11.6158M23.7283 17.2835L11.6158 22.6686M11.6158 22.6686C11.3499 21.8489 10.8714 20.8288 10.3862 19.9105C9.804 18.8085 9.16155 17.7584 8.77174 17.2818C7.646 15.904 6.94128 14.2433 6.73728 12.4924L11.6158 22.6686Z" fill="#FFD166" stroke="#191A1B" stroke-width="1.2"/>
<path d="M11.165 25.4494C11.165 25.2567 11.2416 25.0718 11.3779 24.9355C11.5142 24.7992 11.6991 24.7227 11.8918 24.7227H20.6133C20.8061 24.7227 20.9909 24.7992 21.1272 24.9355C21.2635 25.0718 21.3401 25.2567 21.3401 25.4494C21.3401 25.6422 21.2635 25.8271 21.1272 25.9634C20.9909 26.0997 20.8061 26.1762 20.6133 26.1762H11.8918C11.6991 26.1762 11.5142 26.0997 11.3779 25.9634C11.2416 25.8271 11.165 25.6422 11.165 25.4494Z" fill="#191A1B"/>
<path d="M21.3401 27.6289H11.165V29.0825C11.165 29.468 11.3182 29.8377 11.5908 30.1103C11.8634 30.3829 12.2331 30.5361 12.6186 30.5361H19.8865C20.272 30.5361 20.6418 30.3829 20.9144 30.1103C21.187 29.8377 21.3401 29.468 21.3401 29.0825V27.6289Z" fill="#191A1B"/>
<path d="M16.6602 12.7348H17.9588L16.3828 15.2838L16.4219 14.7042L16.4939 13.637H15.4242H14.496L15.6518 11.6579L15.4046 12.7348H16.6602Z" fill="#FFD166" stroke="#191A1B" stroke-width="2"/>
</svg>
