<svg width="33" height="32" viewBox="0 0 33 32" fill="none" xmlns="http://www.w3.org/2000/svg">
<path d="M5.81009 16.7106H13.9593V29.4218H5.81009V16.7106Z" fill="#C780FF"/>
<path d="M19.8271 16.7106H27.9763V29.4218H19.8271V16.7106Z" fill="#C780FF"/>
<path d="M16.9072 4L28.5644 17.0146H5.25L16.9072 4Z" fill="#C780FF"/>
<path d="M9.88566 15.2304H22.9765V19.8562H9.88566V15.2304Z" fill="#C780FF"/>
<path d="M17.7053 3.38597L17.7052 3.38586C17.6306 3.3111 17.542 3.25178 17.4445 3.21131C17.3469 3.17083 17.2424 3.15 17.1368 3.15C17.0312 3.15 16.9266 3.17083 16.8291 3.21131C16.7315 3.25178 16.6429 3.3111 16.5684 3.38586L16.5682 3.386L5.13443 14.8198C5.05992 14.8945 5.00087 14.9831 4.96064 15.0807C4.92042 15.1782 4.89981 15.2827 4.9 15.3882L4.9 15.3885L4.9 28.7281C4.9 28.941 4.98458 29.1452 5.13514 29.2957C5.2857 29.4463 5.48991 29.5309 5.70283 29.5309H14.2783C14.4912 29.5309 14.6954 29.4463 14.846 29.2957C14.9965 29.1452 15.0811 28.941 15.0811 28.7281V21.1054V20.9554H15.2311H19.0424H19.1924V21.1054V28.7281C19.1924 28.941 19.277 29.1452 19.4276 29.2957C19.5781 29.4463 19.7823 29.5309 19.9952 29.5309H28.5707C28.7836 29.5309 28.9878 29.4463 29.1384 29.2957C29.2889 29.1452 29.3735 28.941 29.3735 28.7281V15.3885V15.3882C29.3737 15.2827 29.3531 15.1782 29.3129 15.0807C29.2727 14.9832 29.2137 14.8946 29.1393 14.82L17.7053 3.38597ZM17.7053 3.38597L22.7476 8.43025L23.0037 8.68643V8.3242V5.86019C23.0037 5.64726 23.0883 5.44306 23.2389 5.2925C23.3894 5.14194 23.5936 5.05736 23.8066 5.05736H25.7122C25.9251 5.05736 26.1293 5.14194 26.2799 5.2925C26.4305 5.44306 26.515 5.64726 26.515 5.86019V12.1355V12.1977L26.559 12.2416L29.1391 14.8198L17.7053 3.38597ZM29.5235 28.7281V15.3885H4.75V28.7281C4.75 28.9808 4.85039 29.2231 5.02908 29.4018C5.20777 29.5805 5.45012 29.6809 5.70283 29.6809H14.2783C14.531 29.6809 14.7733 29.5805 14.952 29.4018C15.1307 29.2231 15.2311 28.9808 15.2311 28.7281V21.2554V21.1054H15.3811H18.8924H19.0424V21.2554V28.7281C19.0424 28.9808 19.1428 29.2231 19.3215 29.4018C19.5002 29.5805 19.7425 29.6809 19.9952 29.6809H28.5707C28.8234 29.6809 29.0658 29.5805 29.2444 29.4018C29.4231 29.2231 29.5235 28.9808 29.5235 28.7281ZM6.50566 27.7752V27.9252H6.65566H13.3255H13.4755V27.7752V20.1526C13.4755 19.9397 13.56 19.7355 13.7106 19.5849C13.8612 19.4344 14.0654 19.3498 14.2783 19.3498H19.9952C20.2082 19.3498 20.4124 19.4344 20.5629 19.5849C20.7135 19.7355 20.7981 19.9397 20.7981 20.1526V27.7752V27.9252H20.9481H27.6179H27.7679V27.7752V15.7829V15.7208L27.7239 15.6769L17.2428 5.19576L17.1368 5.0897L17.0307 5.19576L6.54959 15.6769L6.50566 15.7208V15.7829V27.7752Z" fill="#191A1B" stroke="#F7F7F8" stroke-width="0.3"/>
</svg>
